{
  "jira": {
    "jira":{
      "url": "https://burqbroadband.atlassian.net/",
      "username": "icondortelecom",
      "password": "delle6430",
      "verify": true,

      "TMTST":{
        "priorities": {
          "Not classified": "Major",
          "Information": "Trivial",
          "Warning": "Minor",
          "Average": "Major",
          "High": "Critical",
          "Disaster": "Blocker"
        },

        "issue_fields": {
          "project": {"key": "TMTST"},
          "issuetype": {"name": "Bug"}
        }
      }
    }
  },

  "zabbix": {
    "url": "http://10.253.2.9/zabbix/",
    "username": "jira",
    "password": "ks2h@ow9A.NFb3H$gj[o"
  },

  "tmdb": {
    "filename": "./tmdb.sqlite",
    "table": "alarm_events"
  }
}
